%YAML 1.1
%TAG !u! tag:unity3d.com,2011:
--- !u!1045 &1
EditorBuildSettings:
  m_ObjectHideFlags: 0
  serializedVersion: 2
  m_Scenes:
  - enabled: 1
    path: Assets/Scenes/MainMenuLevel.unity
    guid: 886f61017e526384081ed01e696403f0
  - enabled: 1
    path: Assets/Scenes/JangoLevel.unity
    guid: 9499c076ec6807246aa1cc958f687963
  - enabled: 1
    path: Assets/Scenes/FoldingBridgeLevel.unity
    guid: 6d22ec0a8e6d5b74f80a5f98cd845031
  - enabled: 0
    path: Assets/Scenes/JangoLevelOld.unity
    guid: 67f9626ee59e9f841af4108cf27c7e78
  - enabled: 0
    path: Assets/Scenes/TemplateLevel.unity
    guid: 7066861cb1a5e384aa4e64e05e56fe8d
  - enabled: 0
    path: Assets/Scenes/TemplateLevel_2.unity
    guid: b4c654cf8f35deb4db1d715a56b7333b
  m_configObjects: {}
